{
  "title": "TARK Explorer",
  "server": "http://40.89.172.216:4003/api",
  "alias": "Testnet local",
  "activeDelegates": 51,
  "rewardOffset": 75600,
  "currencies": [],
  "knownWallets": {},
  "defaults": {
    "token": "TARK",
    "symbol": "TѦ",
    "currency": null,
    "priceChartOptions": {
      "enabled": false,
      "period": "day",
      "type": "price"
    }
  }
}
